<?xml version="1.0" encoding="UTF-8"?>
<testsuite name="robot.service.RobotStringCommandParserTest" time="0.004" tests="7" errors="0" skipped="0" failures="0">
  <properties>
    <property name="java.runtime.name" value="Java(TM) SE Runtime Environment"/>
    <property name="sun.boot.library.path" value="/home/sasha/Idea2016/jdk1.8.0_121/jre/lib/amd64"/>
    <property name="java.vm.version" value="25.121-b13"/>
    <property name="user.country.format" value="BR"/>
    <property name="java.vm.vendor" value="Oracle Corporation"/>
    <property name="maven.multiModuleProjectDirectory" value="/home/sasha/Idea2016/IdeaProjects/MarsRobotRemoteControl"/>
    <property name="java.vendor.url" value="http://java.oracle.com/"/>
    <property name="path.separator" value=":"/>
    <property name="guice.disable.misplaced.annotation.check" value="true"/>
    <property name="java.vm.name" value="Java HotSpot(TM) 64-Bit Server VM"/>
    <property name="file.encoding.pkg" value="sun.io"/>
    <property name="user.country" value="US"/>
    <property name="sun.java.launcher" value="SUN_STANDARD"/>
    <property name="sun.os.patch.level" value="unknown"/>
    <property name="java.vm.specification.name" value="Java Virtual Machine Specification"/>
    <property name="user.dir" value="/home/sasha/Idea2016/IdeaProjects/MarsRobotRemoteControl"/>
    <property name="java.runtime.version" value="1.8.0_121-b13"/>
    <property name="java.awt.graphicsenv" value="sun.awt.X11GraphicsEnvironment"/>
    <property name="java.endorsed.dirs" value="/home/sasha/Idea2016/jdk1.8.0_121/jre/lib/endorsed"/>
    <property name="os.arch" value="amd64"/>
    <property name="java.io.tmpdir" value="/tmp"/>
    <property name="line.separator" value="&#10;"/>
    <property name="java.vm.specification.vendor" value="Oracle Corporation"/>
    <property name="os.name" value="Linux"/>
    <property name="classworlds.conf" value="/usr/share/maven/bin/m2.conf"/>
    <property name="sun.jnu.encoding" value="UTF-8"/>
    <property name="java.library.path" value="/u01/app/oracle/product/11.2.0/xe/lib::/usr/java/packages/lib/amd64:/usr/lib64:/lib64:/lib:/usr/lib"/>
    <property name="java.specification.name" value="Java Platform API Specification"/>
    <property name="java.class.version" value="52.0"/>
    <property name="sun.management.compiler" value="HotSpot 64-Bit Tiered Compilers"/>
    <property name="os.version" value="4.10.0-20-generic"/>
    <property name="user.home" value="/home/sasha"/>
    <property name="user.timezone" value="America/Sao_Paulo"/>
    <property name="java.awt.printerjob" value="sun.print.PSPrinterJob"/>
    <property name="java.specification.version" value="1.8"/>
    <property name="file.encoding" value="UTF-8"/>
    <property name="user.name" value="sasha"/>
    <property name="java.class.path" value="/usr/share/maven/boot/plexus-classworlds-2.x.jar"/>
    <property name="java.vm.specification.version" value="1.8"/>
    <property name="sun.arch.data.model" value="64"/>
    <property name="java.home" value="/home/sasha/Idea2016/jdk1.8.0_121/jre"/>
    <property name="sun.java.command" value="org.codehaus.plexus.classworlds.launcher.Launcher clean package"/>
    <property name="java.specification.vendor" value="Oracle Corporation"/>
    <property name="user.language" value="en"/>
    <property name="user.language.format" value="pt"/>
    <property name="awt.toolkit" value="sun.awt.X11.XToolkit"/>
    <property name="java.vm.info" value="mixed mode"/>
    <property name="java.version" value="1.8.0_121"/>
    <property name="java.ext.dirs" value="/home/sasha/Idea2016/jdk1.8.0_121/jre/lib/ext:/usr/java/packages/lib/ext"/>
    <property name="securerandom.source" value="file:/dev/./urandom"/>
    <property name="sun.boot.class.path" value="/home/sasha/Idea2016/jdk1.8.0_121/jre/lib/resources.jar:/home/sasha/Idea2016/jdk1.8.0_121/jre/lib/rt.jar:/home/sasha/Idea2016/jdk1.8.0_121/jre/lib/sunrsasign.jar:/home/sasha/Idea2016/jdk1.8.0_121/jre/lib/jsse.jar:/home/sasha/Idea2016/jdk1.8.0_121/jre/lib/jce.jar:/home/sasha/Idea2016/jdk1.8.0_121/jre/lib/charsets.jar:/home/sasha/Idea2016/jdk1.8.0_121/jre/lib/jfr.jar:/home/sasha/Idea2016/jdk1.8.0_121/jre/classes"/>
    <property name="java.vendor" value="Oracle Corporation"/>
    <property name="maven.home" value="/usr/share/maven"/>
    <property name="file.separator" value="/"/>
    <property name="java.vendor.url.bug" value="http://bugreport.sun.com/bugreport/"/>
    <property name="sun.cpu.endian" value="little"/>
    <property name="sun.io.unicode.encoding" value="UnicodeLittle"/>
    <property name="sun.desktop" value="gnome"/>
    <property name="sun.cpu.isalist" value=""/>
  </properties>
  <testcase name="stringToCommandMappingIsCaseInsensitive" classname="robot.service.RobotStringCommandParserTest" time="0.004"/>
  <testcase name="nullStringResultsInEmptyCommandList" classname="robot.service.RobotStringCommandParserTest" time="0"/>
  <testcase name="stringLMapsToTurnLeftCommand" classname="robot.service.RobotStringCommandParserTest" time="0"/>
  <testcase name="emptyStringResultsInEmptyCommandList" classname="robot.service.RobotStringCommandParserTest" time="0"/>
  <testcase name="stringMMapsToMoveCommand" classname="robot.service.RobotStringCommandParserTest" time="0"/>
  <testcase name="stringRMapsToTurnRightCommand" classname="robot.service.RobotStringCommandParserTest" time="0"/>
  <testcase name="multiCommandStringIsMappedToCommandsInSameOrder" classname="robot.service.RobotStringCommandParserTest" time="0"/>
</testsuite>